{
    "/js/admin.js": "/js/admin.js?id=8302bb3b84df4b24feba",
    "/js/app.js": "/js/app.js?id=4f308d30231c9b4afb9f",
    "/css/app.css": "/css/app.css?id=86a2fd4ad87a4224dda2",
    "/css/admin.css": "/css/admin.css?id=a8b80aa200d647b60496",
    "/css/communicate.css": "/css/communicate.css?id=24dcafad2392beb50c5b",
    "/js/communicate.js": "/js/communicate.js?id=74e33bb241a970e562c4"
}
